digraph repozytoria {
    subgraph cluster_master {
        graph [label = "Master", style = filled];
        
        repo -> modul [label = " post-receive"];

        repo [label = "repozytorium główne"];
        modul [label = "moduł"];
    }
    
    subgraph cluster_agent {
        graph [label = "Agent"];
        
        kopia [label = "tymczasowa kopia robocza"];
    }
    
    kopia -> repo [constraint = false];
}
